…
You may want to refer to the [OBIS
manual](https://manual.obis.org/darwin_core.html) and the OBIS webpage
about [Data Access](https://obis.org/data/access/).

``` r
#Checking values in 
caretta_obs %>% 
  #Removing observations for which there is no date
  drop_na(eventDate)
```

    ## # A tibble: 5,269 × 103
    ##    associatedR…¹ basis…² bibli…³ catal…⁴ colle…⁵ coord…⁶ coord…⁷ datas…⁸ datas…⁹
    ##    <chr>         <chr>   <chr>   <chr>   <chr>   <chr>   <chr>   <chr>   <chr>  
    ##  1 "[{\"crossre… Machin… "[{\"c… 1014_8… 1014    9.9999… 0.11    1014    IFREME…
    ##  2 "[{\"crossre… Machin… "[{\"c… 1014_9… 1014    9.9999… 0.11    1014    IFREME…
    ##  3 "[{\"crossre… Machin… "[{\"c… 1014_8… 1014    9.9999… 0.11    1014    IFREME…
    ##  4 "[{\"crossre… Machin… "[{\"c… 1014_1… 1014    9.9999… 0.11    1014    IFREME…
    ##  5 "[{\"crossre… Machin… "[{\"c… 1014_1… 1014    9.9999… 0.11    1014    IFREME…
    ##  6 "[{\"crossre… Machin… "[{\"c… 1014_1… 1014    9.9999… 0.11    1014    IFREME…
    ##  7 "[{\"crossre… Machin… "[{\"c… 1014_1… 1014    9.9999… 0.11    1014    IFREME…
    ##  8 "[{\"crossre… Machin… "[{\"c… 1014_1… 1014    9.9999… 0.11    1014    IFREME…
    ##  9 "[{\"crossre… Machin… "[{\"c… 1014_2… 1014    9.9999… 0.11    1014    IFREME…
    ## 10 "[{\"crossre… Machin… "[{\"c… 1014_1… 1014    9.9999… 0.11    1014    IFREME…
    ## # … with 5,259 more rows, 94 more variables: dateIdentified <chr>,
    ## #   decimalLatitude <dbl>, decimalLongitude <dbl>, eventDate <chr>,
    ## #   eventTime <chr>, family <chr>, footprintWKT <chr>, genus <chr>,
    ## #   geodeticDatum <chr>, georeferencedDate <chr>, identificationRemarks <chr>,
    ## #   individualCount <chr>, institutionCode <chr>, kingdom <chr>, license <chr>,
    ## #   lifeStage <chr>, modified <chr>, nomenclaturalCode <chr>,
    ## #   occurrenceID <chr>, occurrenceRemarks <chr>, occurrenceStatus <chr>, …
…
