actual SDM attempt
…
Pull in background data

env.back <- stars::st_extract(env.stars, sf::st_coordinates(abs.points)) %>% 
  dplyr::as_tibble() %>% 
  na.omit()
env.back

# A tibble: 992 × 5
   BO_sstmean BO_bathymean BO22_ph BO2_dissoxmean_bdmean BO2_salinitymean_ss
        <dbl>        <dbl>   <dbl>                 <dbl>               <dbl>
 1       28.4        -2445    8.16                 111.                 36.2
 2       26.9        -3142    8.12                 119.                 36.5
 3       28.3        -4549    8.19                 159.                 36.0
 4       27.1        -4970    8.17                 180.                 35.5
 5       26.8        -3869    8.16                 156.                 36.0
 6       28.0        -5095    8.17                 183.                 35.4
 7       27.0        -4201    8.16                 151.                 36.1
 8       27.2        -3998    8.15                 147.                 36.3
 9       27.2        -4501    8.17                 182.                 35.3
10       28.5        -1976    8.16                  62.6                36.3
# … with 982 more rows
…
