Marine SDMs - Obtaining presence data for loggerhead turtles from OBIS
…
From the plot above, we should consider removing at least some of the observations classified as NO_DEPTH,ON_LAND. This is because loggerhead sea turtles are not present inland. Instead, they are found in temperate and subtropical ocean waters and in sandy beaches.

Some of these observations appear to be quite close to the shore, so they may have occurred in a sandy beach. We can check the proximity of the observation to the shore using the shoredistance column, which provides the distance to shore in meters.

caretta_obs %>% 
  filter(flags == "NO_DEPTH,ON_LAND") %>% 
  select(shoredistance) %>% 
  arrange(desc(shoredistance))

# A tibble: 25 × 1
   shoredistance
           <int>
 1          -231
 2          -394
 3          -971
 4         -1403
 5         -3895
 6         -5896
 7         -8319
 8         -8562
 9        -17661
10        -19763
# ℹ 15 more rows
…
